1,Control_,0,v111.mat,119.609375,15310,58,58,5.0200000000000005,-2.339,0.14077978273574204,0.20186055822566606,1.939283952962354,-1.823,0.1322348884215495,0.18125927302112702,1.939283952962354,-1.4979999999999998,0.132375460113237,0.1809643870395946
2,Control_,0,v151.mat,163.390625,20914,80,76,5.0200000000000005,-3.786,0.14156156037506987,0.1654216239326227,1.193,-2.442295769862038,0.1374882477939014,0.13965071420870204,1.193,-0.8603875817493143,0.13948345822250938,0.12978804137014463
3,Control_,0,v134.mat,104.3671875,13359,51,50,2.444,-2.695,0.14150556494537486,0.1926048985811634,1.951,-1.9368942248126635,0.11865233148457424,0.14841803869306147,1.608214173661305,-0.9354235763211628,0.12146113459005915,0.14317797674950497
4,Control_,0,v48p.mat,81.65625,10452,39,39,2.224,-1.709,0.14486971518923603,0.273853562332751,1.4929999999999999,-1.252938455627171,0.06931807479097572,0.208155595815766,1.4929999999999999,-1.252938455627171,0.07155066420848565,0.20685818068498774
5,Control_,0,v149.mat,133.578125,17098,65,64,3.6590000000000003,-3.9210000000000003,0.13925733080508032,0.38522955863540537,2.296665315544601,-1.8248885189376556,0.10142079017235518,0.16951896237732267,1.7424793847987907,-2.2331278434697723,0.10412732759559239,0.16761078619228817
6,Control_,0,v306.mat,142.9765625,18301,70,65,1.672,-1.455,0.13295426191838808,0.14576119063347212,1.672,-0.8512567244673209,0.13077561099001556,0.14201794390758804,0.9776336147504757,-0.5897632614082058,0.13191699296314002,0.1267937251927757
7,Control_,0,v54p.mat,150.265625,19234,74,74,4.284,-3.884,0.1454018213361208,0.3766755839149421,2.2261491946935617,-1.3219999999999998,0.10873809918855519,0.19054354956431072,2.0965481854322507,-1.1775037447561107,0.10832113204775987,0.18994074738553324
8,Control_,0,v304.mat,104.6875,13400,51,51,4.8020000000000005,-2.976,0.12983369992144542,0.28276939884928826,2.188476037129066,-2.151919795496745,0.11588756917030014,0.2693443421899647,2.024760999320042,-1.5145680057649318,0.11690649003031657,0.23131367432235014
9,Control_,0,v56p.mat,110.4609375,14139,54,53,2.549,-3.047,0.14803133922223338,0.2637299718991701,1.924374338905082,-2.6590000000000003,0.1265411587192032,0.21652394309538442,1.5933204722141197,-2.6590000000000003,0.1268965449695878,0.21514586284701356
10,Control_,0,v305.mat,174.0078125,22273,86,84,4.8020000000000005,-3.995,0.13147476883741704,0.26577666971543856,4.701216752136332,-6.583123502911268,0.0880011864417457,0.23677463419324724,2.318134194295453,-2.3500480749342954,0.07444420873438247,0.20353855915319377
11,Control_,0,v120.mat,94.0078125,12033,46,46,4.321,-3.9210000000000003,0.14802497955184646,0.29796750685406403,2.7868461373857403,-2.78,0.12430240953540597,0.2320535065017286,3.386224414113275,-2.6364883700355892,0.12578693761774823,0.21348610789027903
12,Control_,0,v121.mat,127.9453125,16377,62,61,2.187,-2.817,0.14229878231023613,0.18589339259451423,2.0759999999999996,-0.833041149169783,0.133136460966844,0.1570726268035425,0.9359914701195855,-0.8094993916386986,0.13595042798418067,0.1532825311414948
13,Control_,0,v44p.mat,89.0078125,11393,43,43,5.0200000000000005,-1.463,0.1307265541629902,0.16116849262188762,1.4562860611428528,-1.014,0.1157779455023516,0.14615883302360697,1.4562860611428528,-0.9020248270879102,0.11722829608899055,0.14242044146875912
14,Control_,0,v114.mat,103.9375,13304,50,49,5.0200000000000005,-1.075,0.1370493519954426,0.14454122212832082,1.782,-0.904926208830376,0.12894582384940484,0.13209301026801307,0.9359999999999999,-0.7559999999999999,0.13044101942366912,0.11496370647858964
15,Control_,0,v107.mat,154.640625,19794,76,72,4.1,-3.958,0.1380336678312939,0.3213813904330004,1.8129731506291649,-1.9167474707103287,0.12327663394260187,0.16539842986030656,1.5708987893580857,-1.4211360146771737,0.13076381765718778,0.14629136231186912
16,Control_,0,v43p.mat,99.609375,12750,48,47,2.197,-1.2510000000000001,0.1446936883384933,0.23865507339153502,1.692504037611437,-2.1621085896226804,0.13765639465699742,0.23214051868461116,1.692504037611437,-1.2682299589579125,0.14030961980115753,0.21055870380588046
17,Control_,0,v113.mat,121.671875,15574,59,59,2.6550000000000002,-1.92,0.14370950234195992,0.1710590872971052,1.18487081521358,-1.1010299048166479,0.10164280379735484,0.15034176825704965,0.8851154821856174,-1.1010299048166479,0.10302056546111751,0.14838217933217443
18,Control_,0,v127.mat,115.0078125,14721,56,56,1.34,-1.111,0.138674239092739,0.15137588907244479,1.083,-0.9680707012628028,0.12445897616062639,0.13409738104278687,1.083,-0.7393599216102088,0.12399787475195247,0.13110599112484578
19,Control_,0,v308.mat,133.0078125,17025,65,64,3.0700000000000003,-2.265,0.1329854486436355,0.2371135328088436,1.1714336742707152,-1.161408434780065,0.11941274488304603,0.2138418442702948,1.1714336742707152,-1.2263464764492409,0.1218122542492567,0.21999441194056774
20,Control_,0,v143.mat,121.9296875,15607,59,59,4.098,-3.082,0.13641568729281395,0.2752128043366972,1.304,-1.2457593455614624,0.10207678931300589,0.18315845716138687,1.304,-1.2457593455614624,0.10278838259358367,0.18174481726016756
21,Control_,0,v118.mat,93.8046875,12007,45,45,1.745,-1.85,0.14327682536064493,0.26112423955479336,1.5219055275282232,-1.0705857131799448,0.11194390402140147,0.23441015724111758,1.5219055275282232,-1.0705857131799448,0.11260185191800193,0.23475479503989197
22,Control_,0,v50p.mat,126.8671875,16239,62,61,2.444,-2.1550000000000002,0.14579219293384024,0.19415882719120175,1.844588665324265,-1.087,0.12665561439188283,0.16300231719499222,1.7838706308836978,-1.0142474382211464,0.12828010720866992,0.16038826465261638
23,Control_,0,v300.mat,203.0078125,25985,100,98,4.174,-3.751,0.14188099207032392,0.43210003296802896,2.3174134894527816,-2.877540627490738,0.07213139276290635,0.25682706818127937,1.8213561585178641,-1.3521891394656023,0.07360238335901166,0.2007045704576981
24,Control_,0,v131.mat,130.359375,16686,64,61,2.338,-3.811,0.14156023644151733,0.16817552048607093,1.2827663778214338,-1.1307740926051542,0.13391406947206833,0.14285555508464398,1.2827663778214338,-1.093104148235713,0.13767559525821949,0.1424792964720163
25,Control_,0,v45p.mat,84.9296875,10871,41,40,1.493,-2.044,0.14069727764356157,0.12437855563339342,1.1357144874053064,-1.075,0.13806389519152248,0.11390644575614647,1.0508012250373326,-0.8989999999999999,0.13899535435316365,0.11228350826133897
26,Control_,0,v46p.mat,76.7421875,9823,37,37,2.224,-2.237,0.14243477445522593,0.22226976462886733,2.057,-2.096,0.1233176262378511,0.20595335840073578,1.392766963691005,-1.092866366695209,0.12330857036866329,0.19198155777730436
27,Control_,0,v133.mat,117.7578125,15073,57,54,3.732,-2.707,0.14119589925520362,0.14728532826677074,1.156,-0.6763638279618817,0.13620172519574958,0.10309922093175888,0.6566875016256165,-0.5799252615100485,0.13813541843727523,0.09874599191249805
28,Control_,0,v115.mat,122.2734375,15651,60,60,3.622,-2.707,0.14186697671916035,0.25741683279781863,1.3940607383475105,-2.191,0.1218978512958831,0.17663006805623738,1.3940607383475105,-1.1513946584730486,0.12366641973142516,0.16761910807148764
29,Control_,0,v307.mat,178.1796875,22807,88,85,2.665,-2.871,0.1330642900494539,0.197873200023173,1.5252986718216341,-1.677768620315958,0.12585050426306987,0.18461165956641185,1.5252986718216341,-1.677768620315958,0.12697809303243376,0.18242294742359505
30,Control_,0,v47p.mat,84.875,10864,41,41,2.297,-2.191,0.14582823036973877,0.2433776751569166,1.8994270089116967,-1.763224329576619,0.10041590891780232,0.20425478055736532,1.5776406509050482,-1.2678968494212703,0.10003806167397901,0.20238702373147902
31,Control_,0,v123.mat,113.671875,14550,55,52,2.15,-2.7800000000000002,0.14417918972689459,0.2797213812113997,1.671423154251411,-1.95654867674181,0.07942879330054453,0.27856567881260685,1.5220692020260862,-1.95654867674181,0.08174748762113043,0.2765310619094242
32,Control_,0,v59p.mat,129.0078125,16513,63,62,2.338,-2.343,0.14275532515051936,0.20775707834524912,2.0307103514131066,-1.357,0.11489005490074518,0.17258876768173703,1.8713486544656428,-1.3914960255948414,0.11566807493355145,0.155781342530063
33,Control_,0,v303.mat,150.171875,19222,74,73,4.8020000000000005,-2.927,0.13208105296014983,0.3516911121195226,4.800629835869392,-4.723715711158604,0.1084126011811264,0.3089631082762002,2.543203687038957,-3.3991236301040373,0.09208955603896309,0.2635170086825304
34,Control_,0,v147.mat,111.0078125,14209,54,53,2.303,-2.265,0.13817290746043095,0.2248309512139834,2.187,-1.828715720162636,0.12797279792587102,0.19480122924000787,1.317,-1.1299238320490521,0.12767270478588297,0.18468294871485852
35,Control_,0,v53p.mat,149.390625,19122,73,71,4.3950000000000005,-3.884,0.14725010321536505,0.44637576831945514,1.6052559533867394,-3.3450034432498694,0.10023182292791533,0.206385283826219,1.3474043889553242,-1.5679999999999998,0.1020576377566091,0.2014864747464863
36,Control_,0,v138.mat,97.5625,12488,47,47,5.0200000000000005,-2.707,0.13814043376378166,0.16517732163000806,1.4508155041582973,-1.2499023660010695,0.12668436906267092,0.13521745518576928,0.8599999999999999,-0.7733228202072796,0.126754969074886,0.12944101805311625
37,Control_,0,v51p.mat,62.3671875,7983,30,30,1.8920000000000001,-1.86,0.1444020121705993,0.17737636684308963,1.892,-1.2526644887331575,0.11042873842747691,0.14387894603139276,0.933781005845898,-0.829,0.11110237062979644,0.14003750634100087
38,Control_,0,v302.mat,139.3828125,17841,68,66,4.432,-3.332,0.1333869826744429,0.27913300311928135,1.6626874453859244,-2.412,0.11357732561276798,0.15700943368082393,1.5639999999999998,-1.0007245179636823,0.11290988144160284,0.15349438447560393
39,Control_,0,v140.mat,134.2734375,17187,66,65,1.6340000000000001,-0.977,0.1353868774747131,0.15061279208559655,1.4929999999999999,-0.9764320723591668,0.1256451345693435,0.13824395707565895,1.388,-0.9764320723591668,0.12622637948539805,0.1361705774016757
40,Control_,0,v125.mat,120.140625,15378,59,57,2.021,-1.322,0.13985694532859655,0.11712830821944693,1.4190845798568108,-0.8444114322519627,0.1314736862521704,0.0983082271692779,1.3193028025052567,-0.7491757375972359,0.13313004312385662,0.09529958092009218
41,Control_,0,v41p.mat,97.65625,12500,47,44,3.4010000000000002,-2.1550000000000002,0.14329435789473685,0.17504993700072025,2.2335966446938254,-1.087,0.13883597176394025,0.15494323041594624,1.8699231073598743,-0.9703138249200858,0.14081628729839316,0.15075616794641822
42,Control_,0,v117.mat,200.4609375,25659,99,98,2.444,-3.443,0.14088743459256117,0.2308732449438968,1.892,-1.820393943016468,0.020567293293957723,0.1741085040863819,1.4013698982263971,-1.415792597803494,0.0184486021452154,0.17614317702561652
43,Control_,0,v60p.mat,101.0078125,12929,49,49,3.0700000000000003,-3.884,0.13408330517685657,0.4197117904315989,2.1590933310084965,-2.5959999999999996,0.09420079354751432,0.2979199815298227,2.0237357178340334,-2.339,0.09334613286990054,0.2826074435033408
44,Control_,0,v310.mat,139.0078125,17793,68,68,2.665,-3.7,0.13218642754246934,0.17846724374235076,2.0720092366177676,-2.0733014411558597,0.12369198260633148,0.16569268943345028,1.7018757910961269,-1.4964142894297878,0.12342048283497549,0.1636968374243278
45,Control_,0,v298.mat,138.921875,17782,68,65,5.0200000000000005,-1.492,0.13791878540688687,0.11827170034015991,1.553310960216428,-1.492,0.13597127835626227,0.11188689037572508,1.553310960216428,-0.572,0.13804742279374807,0.10995268890908792
46,Control_,0,v42p.mat,130.5,16704,64,64,4.8020000000000005,-3.9210000000000003,0.14434015489514015,0.48010866752921366,2.363346080943493,-1.8426862490892673,0.08196002107253113,0.22576667168943967,2.3458038008393323,-1.624302951983767,0.08251908818080897,0.2240392104685856
47,Control_,0,v52p.mat,108.4609375,13883,53,53,2.7760000000000002,-3.148,0.14471218491377189,0.22396406053134676,1.782,-1.8142821893339425,0.0854190728681518,0.1992780053470909,1.2691114692658472,-1.0829385746053966,0.08517403575767195,0.19268434601512516
48,Control_,0,v299.mat,173.90625,22260,85,84,3.359,-3.259,0.13967971816333286,0.28789024005145225,2.592,-2.5959999999999996,0.10919951919977604,0.21058777575713328,1.962663789538506,-1.5127299250872985,0.1102147555287461,0.197847551657749
49,Control_,0,v112.mat,124.5546875,15943,61,60,3.0700000000000003,-2.596,0.14010334514074813,0.20518710414093377,0.9115420313362342,-0.9140492591677835,0.11477390046261032,0.14318743281774501,0.9115420313362342,-0.9140492591677835,0.11693853968680892,0.1368132169996319
50,Control_,0,v58p.mat,108.734375,13918,53,53,2.6550000000000002,-1.455,0.14632829505146688,0.18765863149484108,2.652127181335985,-1.295152172010204,0.10866818876943451,0.17703745961321116,1.9146665486200503,-0.8860735764314306,0.11142168581778424,0.17547991869197854
51,Control_,0,v297.mat,107.0078125,13697,52,50,3.585,-3.786,0.13862997275623168,0.2071217944843932,1.34,-3.786,0.11656522737370939,0.15493861868857522,1.0572202105181912,-1.3831227627615335,0.11864584350367402,0.1408657500329786
52,Control_,0,v116.mat,150.7890625,19301,74,73,2.2600000000000002,-2.891,0.13931743378445077,0.2670493441775956,1.4095242803042436,-1.3752802785988523,0.12109765337350793,0.2120509307291487,1.4095242803042436,-1.3752802785988523,0.12189608462877971,0.21124281609264098
53,Control_,0,v49p.mat,131.0078125,16769,64,62,3.18,-3.9210000000000003,0.14522172178612786,0.2163625573567556,1.634,-1.198,0.1241266909000599,0.16443229422394773,1.5290000000000001,-0.8502359275755227,0.12485374557778646,0.16085950889054737
54,Control_,0,v129.mat,87.5625,11208,42,38,4.8020000000000005,-1.3820000000000001,0.13980633194334874,0.1808493363019095,4.791599145404373,-1.3145183450182174,0.1353908414613394,0.1587631051300539,1.7404226718317122,-0.8483290577398929,0.1382388401807002,0.1487567712615943
55,Control_,0,v309.mat,193.890625,24818,95,95,3.548,-3.995,0.1329135707953904,0.27438150448163773,3.2614804655603375,-3.7568480473808226,0.10205845139038447,0.21933511124217747,1.303772599867876,-2.135693317717376,0.1018131004731866,0.18729255987515156
56,Control_,0,v55p.mat,111.578125,14282,54,51,1.819,-2.1550000000000002,0.14506573603873849,0.16265185272239022,1.7946826079469456,-1.694895538753823,0.13598179849252967,0.1522592750061085,1.036,-0.903,0.13734498769194653,0.14758916378100012
57,Control_,0,v108.mat,148.640625,19026,73,71,2.444,-3.7,0.13499404416117558,0.22416555708451816,1.1899877833387542,-1.7943439796988356,0.11332164979838645,0.13983017793564612,1.0399228605172535,-1.1421155758210133,0.1146435098230278,0.13378539582059246
58,Control_,0,v109.mat,125.34375,16044,61,58,4.8020000000000005,-3.9210000000000003,0.14105525922135184,0.5302594886474745,4.802,-2.128,0.08756744461197598,0.3514938782492101,2.923,-1.850601521808744,0.0877004590924062,0.3418394836816553
59,Control_,0,v57p.mat,114.78125,14692,56,56,2.233,-2.9410000000000003,0.147752468224741,0.21802595809845868,2.2329999999999997,-2.941,0.1422692756956368,0.21211610517633453,1.705,-0.9458191937825356,0.14144336146288905,0.17377653091431397
60,Control_,0,v110.mat,129.2890625,16549,63,61,1.7750000000000001,-1.955,0.14260452690733416,0.2425987295797696,1.7750000000000001,-1.6385502598555646,0.13617643482039224,0.22689421444453656,1.414,-1.1239999999999999,0.139394191730733,0.21987591107682056
61,ADHD_,1,v12p.mat,137.53125,17604,67,63,2.408,-2.891,0.15264647089776248,0.2804253981028815,2.674767239347258,-1.977518525145708,0.14214223940709816,0.26148101514603167,2.0077948473525966,-1.3937842564860787,0.14577345316504242,0.2550950055910918
62,ADHD_,1,v263.mat,145.7578125,18657,71,69,2.886,-3.995,0.11367025499107149,0.2830724504370818,1.74915426954953,-1.5283173916513428,0.09359954617656484,0.1591730489211647,1.74915426954953,-1.4102976172716097,0.09442561245770978,0.1556967546695973
63,ADHD_,1,v246.mat,166.4609375,21307,82,78,3.438,-2.743,0.12702783863963663,0.2199876805139242,2.192756563649188,-1.3079999999999998,0.11492701087489265,0.17490336781057897,1.216365496283446,-1.135048990643532,0.11568308461760632,0.1689063781634445
64,ADHD_,1,v35p.mat,119.5703125,15305,58,57,1.193,-1.161,0.13466609811035263,0.1449465273694007,0.8989999999999999,-1.1601702297831937,0.13472201655974864,0.14201974486561117,0.8989999999999999,-1.1601702297831937,0.13457924583832942,0.14074968761339338
65,ADHD_,1,v270.mat,185.0078125,23681,91,91,2.972,-3.9210000000000003,0.1308871847072603,0.1839355178815227,2.722456223101787,-2.052775650645125,0.12060850143807866,0.13822674797026052,1.1059999999999999,-1.2678874632622659,0.11987843311040532,0.13402634700597543
66,ADHD_,1,v6p.mat,137.1953125,17561,67,65,13.813,-13.237,0.146939459148412,0.2781292354978769,1.7750000000000001,-1.917988199538329,0.10848703111443964,0.23352642095144274,1.709289152592955,-1.1813234950297775,0.11127115766811052,0.2295502052698284
67,ADHD_,1,v244.mat,304.921875,39030,151,148,4.8020000000000005,-2.176,0.1387395323435414,0.17430884080924547,1.705,-1.4512074645305737,0.12880453086778382,0.16190301894353828,1.3517413638372762,-1.1325710517086018,0.12943853300880587,0.1587059866841662
68,ADHD_,1,v200.mat,99.5234375,12739,48,47,4.8020000000000005,-2.302,0.1429293756016543,0.1473090842626956,1.5256173475274972,-1.1609999999999998,0.1357212807361688,0.13008562468320442,1.5256173475274972,-0.6298114532078406,0.13647638382493496,0.1285047167800194
69,ADHD_,1,v234.mat,267.1171875,34191,132,127,3.622,-3.406,0.14076971317475048,0.13197079786542035,1.8397123038339995,-1.18631387343918,0.13530744488975818,0.11177411975470257,1.2521345644301414,-0.9838908249189556,0.13598828243375935,0.10723269876903872
70,ADHD_,1,v20p.mat,276.0,35328,136,133,3.843,-3.111,0.1464361994064646,0.17802639792082228,2.127,-1.271,0.1265864327102882,0.1456861138485072,1.8099999999999998,-1.04,0.12772403547940428,0.14181285244355174
71,ADHD_,1,v27p.mat,225.625,28880,111,111,4.284,-3.958,0.14437391019098994,0.2574922655488887,1.999558333096904,-2.3227381501050286,0.0996611457460265,0.19194315683938815,1.5030332702068285,-1.2496951229807651,0.0996570077429553,0.19119062803951983
72,ADHD_,1,v274.mat,135.3359375,17323,66,62,3.806,-3.847,0.13466445279625203,0.18815634122118666,2.297,-1.7129999999999999,0.11663103293157911,0.13816912520412764,1.071,-0.8353076425711609,0.11949040756462198,0.1234345675578272
73,ADHD_,1,v32p.mat,141.0078125,18049,69,67,5.0200000000000005,-3.9210000000000003,0.14058819412651524,0.16146616810408454,4.096225063000329,-1.7545089637633091,0.13205304887995029,0.126211785121528,1.3441823040431313,-0.9865791150647629,0.13339133553119842,0.12524127296187862
74,ADHD_,1,v36p.mat,135.9453125,17401,66,65,2.2600000000000002,-3.774,0.1314864390733745,0.2058809599106706,1.634,-2.007,0.1245932917966962,0.16506556568459282,1.634,-1.1409043805269432,0.1256785652001122,0.16045006091012295
75,ADHD_,1,v177.mat,130.4453125,16697,64,61,5.0200000000000005,-3.9210000000000003,0.14328695983835735,0.20026134598777523,5.02,-2.08,0.1379601011327512,0.16422265141361303,2.12938955102461,-0.9684296568060615,0.14042386334004217,0.16136740580971903
76,ADHD_,1,v288.mat,157.1484375,20115,77,74,5.0200000000000005,-3.958,0.13513620367099702,0.2215289058794271,2.4810000000000003,-1.3153598031937443,0.11793786108864346,0.14935879080021855,1.1177435434995062,-0.8964811354105243,0.11932537207083643,0.14309615780248683
77,ADHD_,1,v265.mat,143.6640625,18389,70,68,5.0200000000000005,-3.995,0.11277208056303684,0.235349068079454,1.4793109450407524,-1.817192064577336,0.09985664217978105,0.14353442553135273,1.0869218918333243,-1.0126491228918948,0.10146858752679269,0.14051946998281492
78,ADHD_,1,v215.mat,166.96875,21372,82,79,4.8020000000000005,-1.455,0.14078724991873284,0.1274592509478061,1.052096146257452,-0.8497698898164989,0.14110622238137602,0.12234027592455313,0.9843164843369961,-0.7559999999999999,0.14115108481293087,0.12298718004245061
79,ADHD_,1,v37p.mat,72.546875,9286,35,34,2.04,-3.958,0.13113202103902877,0.1516262641487201,1.8405498149849273,-0.8182837488421998,0.12599549276568597,0.13492536372089944,1.3552319751803266,-0.7939999999999999,0.12753202351652404,0.13162573204655645
80,ADHD_,1,v8p.mat,123.25,15776,60,59,2.479,-1.934,0.139769990391801,0.23507513642860303,4.44502808456812,-1.6345841411439361,0.12960627303475852,0.22645426970969867,1.0021469867063562,-1.0998939033120831,0.12969090803393382,0.15938161588271327
81,ADHD_,1,v209.mat,236.5078125,30273,117,115,4.689,-3.9210000000000003,0.14382041492592845,0.22435636200678383,2.512951848001553,-2.002518523648111,0.1225763062817869,0.14993803982155196,1.9659999999999997,-1.386442261518543,0.12340513807015312,0.14630752539407357
82,ADHD_,1,v18p.mat,195.3359375,25003,96,94,4.432,-3.9210000000000003,0.14227305986439523,0.25642301770562814,2.021,-2.606631119768707,0.12298673155884825,0.17719450058199254,2.021,-2.606631119768707,0.12476510294440886,0.17460098494866358
83,ADHD_,1,v19p.mat,180.1796875,23063,89,87,2.849,-2.375,0.14671854668105902,0.22161408300250285,1.3324918177320726,-1.4991333553061836,0.07338839848817891,0.16425416044552066,0.8599999999999999,-0.8363352315970025,0.0736572572490355,0.15767419874217753
84,ADHD_,1,v284.mat,120.1796875,15383,59,59,5.0200000000000005,-3.6630000000000003,0.1389521891903913,0.19454564914207503,2.1869395115472416,-1.75805804412947,0.1212215077728454,0.12006607957858191,1.149956765612475,-1.2132199757787794,0.12115979384162102,0.11331443103513215
85,ADHD_,1,v34p.mat,152.7734375,19555,75,75,5.0200000000000005,-2.228,0.13027035217806726,0.18190900017370307,2.197,-2.2279999999999998,0.1215587226458629,0.16457384029133026,1.3553275751343068,-1.051,0.12164542753578286,0.15749013593866554
86,ADHD_,1,v15p.mat,337.90625,43252,167,163,4.248,-3.774,0.14476019362658007,0.20623127893366325,2.7695936382936006,-3.5529999999999995,0.12856293198625082,0.16991555137701753,1.622922273071202,-1.1935692901331783,0.1309349857626399,0.1617358201442973
87,ADHD_,1,v227.mat,219.375,28080,108,106,4.8020000000000005,-2.191,0.14154178849902532,0.10940095816528998,4.802,-0.9766766788599419,0.14040179651824883,0.10310221480889335,1.193,-0.9766766788599419,0.14080374222711303,0.09992308908681279
88,ADHD_,1,v204.mat,159.8125,20456,78,76,2.2680000000000002,-3.786,0.14422805816849518,0.16702844667940236,1.754650022956425,-1.5405032141642148,0.13321951059690143,0.15273053838049855,0.9433484903892815,-0.8229042735278195,0.1338505353924885,0.11222400269251806
89,ADHD_,1,v206.mat,157.6015625,20173,77,73,3.475,-2.964,0.1435644543123038,0.13780328462957853,1.4436263586659037,-0.9258282892442733,0.13767334680994703,0.12760802732676024,1.4436263586659037,-0.9258282892442733,0.1403057892541276,0.12561163709704906
90,ADHD_,1,v39p.mat,142.0078125,18177,70,69,4.8020000000000005,-2.1550000000000002,0.14301710953402655,0.18534996654924799,1.4791994359929066,-1.164413065580823,0.13652166996895015,0.16186675383460378,1.4791994359929066,-0.83,0.13680447435340848,0.15961833746012827
91,ADHD_,1,v213.mat,96.5078125,12353,47,46,1.782,-1.124,0.14115051958399194,0.14438220880489566,1.1748476619501043,-0.9517058388275577,0.13506789313238005,0.12769341474467566,1.13193617142231,-0.9517058388275577,0.13576344850601532,0.12603379784906987
92,ADHD_,1,v22p.mat,94.53125,12100,46,44,13.813,-13.237,0.1472227838190517,0.22570759860323594,1.5875422712986227,-1.1485424244633615,0.1294232273014208,0.18348656503697142,1.1524971902386694,-1.1485424244633615,0.13029282372480655,0.1791211555627131
93,ADHD_,1,v40p.mat,157.0078125,20097,77,75,2.996,-3.6630000000000003,0.14486577729590433,0.23935573520247894,2.268,-3.6629999999999994,0.08212410659511568,0.15391144451882735,0.862,-1.934,0.08262002785692665,0.14240941552949618
94,ADHD_,1,v29p.mat,189.0078125,24193,93,92,3.289,-3.9210000000000003,0.1434510939440943,0.29789081900688846,2.192037644945343,-1.3350722135615873,0.10087330336735315,0.173030395258524,1.8421792756353632,-1.193879752958192,0.10266972749634526,0.16603372780299422
95,ADHD_,1,v30p.mat,169.2421875,21663,83,82,2.444,-2.8000000000000003,0.14258576228689712,0.2086095349688697,2.444,-2.3000244778186993,0.132091766379135,0.18692318106272202,1.2051714111459055,-1.4863762703150163,0.13276236180043433,0.179049580588559
96,ADHD_,1,v28p.mat,215.71875,27612,106,104,2.444,-3.075,0.14375321561182403,0.19256108208585482,1.891966298460437,-1.3836350597174443,0.13886839334172366,0.16233088857419486,1.6815298616954977,-1.1738149451104574,0.14134160829480455,0.157968716380084
97,ADHD_,1,v250.mat,108.2265625,13853,53,52,2.886,-2.695,0.13383971550908602,0.17091783206428682,1.8449999999999998,-1.5096466284950278,0.11874423681092933,0.12818202004499268,1.2661698065158025,-0.9347137690546563,0.11957469742102986,0.11705765475235608
98,ADHD_,1,v238.mat,76.96875,9852,37,37,2.092,-3.369,0.1415784879372609,0.14247100529175405,1.4182966828982173,-0.9769999999999999,0.1332355930431746,0.11923641984337927,0.9908360642999332,-0.5469999999999999,0.13286956113966755,0.11809193822424907
99,ADHD_,1,v181.mat,83.34375,10668,40,39,2.003,-3.295,0.1418282467980976,0.1581279426049982,0.9913975798068368,-0.6047188741218728,0.11717867374685063,0.13853136788493822,0.9959274732096579,-0.588247579451111,0.11948949686890378,0.13636379219482012
100,ADHD_,1,v25p.mat,77.296875,9894,37,37,3.3280000000000003,-3.811,0.14341156256316961,0.26166187847215716,1.7203311063977211,-1.284881801713308,0.11841626572684928,0.14426597507720557,1.1939829608740609,-0.9582769890619454,0.11755427170157257,0.14129517065444136
101,ADHD_,1,v219.mat,212.1640625,27157,105,102,5.0200000000000005,-2.064,0.14158969384650272,0.15832661295643338,1.2469999999999999,-0.8182982986958431,0.13798660141946906,0.153003836503515,1.2469999999999999,-0.8182982986958431,0.13889266878089096,0.1536979698664153
102,ADHD_,1,v183.mat,145.2421875,18591,71,71,3.475,-3.479,0.14217256510648896,0.18686451031690274,1.3275579664038988,-1.2085194182019086,0.12985669442436412,0.11462869337149931,1.1248289494248156,-1.2085194182019086,0.12959535636404493,0.11430574631264546
103,ADHD_,1,v31p.mat,91.2421875,11679,44,40,1.672,-1.161,0.14225103987814386,0.14860048536856263,0.9644390507486083,-0.9744584517261162,0.1328421967580118,0.1294638151466194,0.9644390507486083,-0.7604321457437434,0.13689320958361847,0.1236753734183923
104,ADHD_,1,v190.mat,120.8203125,15465,59,58,2.187,-2.007,0.14359116170639988,0.19053190993017918,1.414,-1.6240358556640473,0.09957787404511423,0.1626236113025729,1.414,-1.5037231557971182,0.0997355195647864,0.15997470556136972
105,ADHD_,1,v14p.mat,137.203125,17562,67,65,3.7110000000000003,-2.976,0.15178232907173983,0.29974839320298935,2.7656795027579757,-1.7006256297966753,0.13251305479808334,0.252823285698062,2.4241549937855527,-1.7006256297966753,0.13341807123487315,0.24562964099625526
106,ADHD_,1,v196.mat,104.6484375,13395,51,50,1.458,-0.97,0.1432282941396043,0.12437156745272661,1.282,-0.9679189676577504,0.14310479503168957,0.11505588243058465,1.282,-0.9679189676577504,0.14326846393471637,0.11328479877098285
107,ADHD_,1,v24p.mat,128.0078125,16385,63,61,4.098,-2.765,0.14040190803526975,0.17043481982477585,2.180500154281131,-1.278926954295657,0.13068030233527844,0.1453856214581376,1.245166241990301,-1.146,0.1336233732268912,0.14190243618172504
108,ADHD_,1,v231.mat,154.0078125,19713,76,73,4.358,-3.884,0.1415691622146219,0.16488586742236197,2.152658870070852,-1.7402158639320136,0.13494158907374543,0.12634372614727077,1.304,-1.7402158639320136,0.13730582021591367,0.11831925264179986
109,ADHD_,1,v236.mat,105.484375,13502,51,49,2.334,-2.707,0.14079617444589101,0.20741442043642627,1.487256165317383,-1.7174236025279113,0.12159441218421325,0.1584374294239107,1.487256165317383,-1.5395331673077872,0.12502247814438996,0.15376750785094445
110,ADHD_,1,v21p.mat,129.484375,16574,63,63,2.7760000000000002,-3.443,0.14647751392479028,0.17322174197119775,1.5483540770774396,-0.9259582186766374,0.13691340052835227,0.14507567228027007,1.2832986445345231,-0.7322744707793849,0.1362111835810304,0.13986330546962533
111,ADHD_,1,v10p.mat,111.75,14304,54,53,4.8020000000000005,-2.208,0.1496930854821618,0.16376943629124271,1.4494374082175732,-4.552863278414116,0.14138468424799006,0.15279452127707138,1.3040132835233178,-0.9041016423584323,0.14284911287894647,0.14884279099288403
112,ADHD_,1,v254.mat,81.8515625,10477,39,39,1.599,-1.1460000000000001,0.13840626836730083,0.1518438416650157,1.2833525698773587,-0.769332503681219,0.12441614248488359,0.1272187024382168,1.1998476182358313,-0.7162922739000339,0.12424503517160097,0.1262307812610489
113,ADHD_,1,v38p.mat,192.9296875,24695,95,92,5.064,-3.774,0.13814737055231724,0.2870809583148861,2.518,-1.8863934413032257,0.10375676359118585,0.1615207402426192,2.29278623816889,-1.6410884652170645,0.10521063369779393,0.15345869347176672
114,ADHD_,1,v198.mat,153.2890625,19621,75,71,5.0200000000000005,-2.16,0.1432147028291385,0.12279387226241495,1.634,-1.1609999999999998,0.14220244296696252,0.11632392074223337,1.3537271159155557,-0.5119606542980492,0.1433975709356831,0.11464402877020974
115,ADHD_,1,v179.mat,99.0078125,12673,48,48,2.076,-2.1550000000000002,0.14188634353183516,0.12992325867504959,1.3769999999999998,-1.1609999999999998,0.13937695881887308,0.11953884683564929,0.9006313549239195,-0.723,0.1392595498959085,0.11767519587716534
116,ADHD_,1,v279.mat,157.296875,20134,77,74,2.8120000000000003,-2.191,0.12866804515012578,0.15106237761930164,2.518,-2.191,0.12573643975040733,0.13576959639556446,1.267,-2.191,0.12638509473672363,0.12817535001127797
117,ADHD_,1,v33p.mat,228.2578125,29217,113,109,5.0200000000000005,-3.958,0.12932439657517342,0.20076898496104537,1.7320596092731944,-1.5290000000000001,0.12338070193009469,0.17416509028437005,1.304,-1.2510000000000001,0.12515467513761805,0.16698041991501733
118,ADHD_,1,v173.mat,189.3828125,24241,93,88,2.2600000000000002,-1.713,0.14026221994489543,0.12781491073411871,1.5979999999999999,-1.271,0.13947416285534583,0.1218847916127565,0.965,-0.7789057640018007,0.140295668249258,0.11760288617927483
119,ADHD_,1,v3p.mat,262.265625,33570,130,128,2.444,-1.357,0.13482504429079845,0.15473902147997,2.021,-1.051,0.12376838890909726,0.11872315814491509,2.021,-0.9479981428001156,0.1244722540031996,0.11724813510595979
120,ADHD_,1,v1p.mat,95.765625,12258,46,46,4.211,-3.9210000000000003,0.14694493821435628,0.2639615547563017,2.500900459920856,-2.081,0.12946868322624622,0.1867100831077056,2.1367530518779487,-1.5903302580537375,0.1308865105461516,0.17283523796112438
121,ADHD_,1,v286.mat,89.5703125,11465,43,43,2.923,-3.884,0.13658003534785504,0.1533562955618494,1.1587951206897897,-1.3107850754393415,0.11533785377423977,0.12685337071957312,1.1587951206897897,-0.9965629654925502,0.11738320702527565,0.12285718687600768
