,index_subject,type_subject,total_samples,total_ok,mean_value,num,level,need,true_positives,true_negatives,false_positives,false_negatives
0,1,0,58,58,7.612066421517242e-12,1,1.0,-29.0,0,1,0,0
1,2,0,76,73,0.03989447323485559,1,0.9605263157894737,-35.0,0,1,0,0
2,3,0,50,50,0.09216414642,1,1.0,-25.0,0,1,0,0
3,4,0,39,39,0.01740741424747436,1,1.0,-19.5,0,1,0,0
4,5,0,63,63,0.015850892257809526,1,1.0,-31.5,0,1,0,0
5,6,0,65,64,0.051363116651966155,1,0.9846153846153847,-31.5,0,1,0,0
6,7,0,74,74,0.004848406897535121,1,1.0,-37.0,0,1,0,0
7,8,0,51,51,0.00010482609936229934,1,1.0,-25.5,0,1,0,0
8,9,0,53,51,0.0624951920801407,1,0.9622641509433962,-24.5,0,1,0,0
9,10,0,84,66,0.24315227124071934,1,0.7857142857142857,-24.0,0,1,0,0
10,11,0,46,46,3.2448130420875123e-09,1,1.0,-23.0,0,1,0,0
11,12,0,61,61,3.67813728687164e-11,1,1.0,-30.5,0,1,0,0
12,13,0,43,40,0.10416126050268605,1,0.9302325581395349,-18.5,0,1,0,0
13,14,0,49,49,9.730843763265305e-07,1,1.0,-24.5,0,1,0,0
14,15,0,72,62,0.1712023138637218,1,0.8611111111111112,-26.0,0,1,0,0
15,16,0,47,0,0.9999891523404255,0,0.0,23.5,0,0,1,0
16,17,0,59,57,0.0860875752806126,1,0.9661016949152542,-27.5,0,1,0,0
17,18,0,56,38,0.4419900900714286,1,0.6785714285714286,-10.0,0,1,0,0
18,19,0,64,57,0.14451103644683908,1,0.890625,-25.0,0,1,0,0
19,20,0,59,43,0.30957291225211864,1,0.7288135593220338,-13.5,0,1,0,0
20,21,0,45,45,1.9189410315866668e-11,1,1.0,-22.5,0,1,0,0
21,22,0,62,62,4.836398272258064e-06,1,1.0,-31.0,0,1,0,0
22,23,0,98,84,0.14336031051742032,1,0.8571428571428571,-35.0,0,1,0,0
23,24,0,61,61,0.10538201210163935,1,1.0,-30.5,0,1,0,0
24,25,0,40,38,0.048999611739150004,1,0.95,-18.0,0,1,0,0
25,26,0,37,0,0.9955539218918918,0,0.0,18.5,0,0,1,0
26,27,0,54,38,0.4560870147592592,1,0.7037037037037037,-11.0,0,1,0,0
27,28,0,60,60,2.7621495117005e-06,1,1.0,-30.0,0,1,0,0
28,29,0,85,85,1.7746520070385426e-08,1,1.0,-42.5,0,1,0,0
29,30,0,41,41,0.0004479730464707317,1,1.0,-20.5,0,1,0,0
30,31,0,52,52,8.59563232455077e-14,1,1.0,-26.0,0,1,0,0
31,32,0,62,48,0.2759075427842742,1,0.7741935483870968,-17.0,0,1,0,0
32,33,0,74,29,0.6129091096216254,0,0.3918918918918919,8.0,0,0,1,0
33,34,0,53,51,0.047260422477358496,1,0.9622641509433962,-24.5,0,1,0,0
34,35,0,71,10,0.8657102504828654,0,0.14084507042253522,25.5,0,0,1,0
35,36,0,47,0,0.999995335319149,0,0.0,23.5,0,0,1,0
36,37,0,30,30,0.00026446589966666665,1,1.0,-15.0,0,1,0,0
37,38,0,66,66,5.409865646212121e-11,1,1.0,-33.0,0,1,0,0
38,39,0,65,65,0.01969301588,1,1.0,-32.5,0,1,0,0
39,40,0,57,43,0.41705134575438596,1,0.7543859649122807,-14.5,0,1,0,0
40,41,0,44,44,4.104333176704545e-06,1,1.0,-22.0,0,1,0,0
41,42,0,98,98,6.17969961105553e-10,1,1.0,-49.0,0,1,0,0
42,43,0,49,49,0.0005159648458273469,1,1.0,-24.5,0,1,0,0
43,44,0,68,0,1.0,0,0.0,34.0,0,0,1,0
44,45,0,65,0,0.9998133301538462,0,0.0,32.5,0,0,1,0
45,46,0,64,64,0.007909713089829799,1,1.0,-32.0,0,1,0,0
46,47,0,53,53,7.337945136679246e-08,1,1.0,-26.5,0,1,0,0
47,48,0,84,84,9.942304998162148e-05,1,1.0,-42.0,0,1,0,0
48,49,0,60,55,0.10378099132799999,1,0.9166666666666666,-25.0,0,1,0,0
49,50,0,53,53,4.1033967162743784e-19,1,1.0,-26.5,0,1,0,0
50,51,0,50,6,0.89360123548,0,0.12,19.0,0,0,1,0
51,52,0,73,73,1.346636921231573e-08,1,1.0,-36.5,0,1,0,0
52,53,0,62,62,0.009472889759193548,1,1.0,-31.0,0,1,0,0
53,54,0,38,38,0.1802489245,1,1.0,-19.0,0,1,0,0
54,55,0,95,95,1.1106993416417807e-12,1,1.0,-47.5,0,1,0,0
55,56,0,51,51,0.0063395211999057646,1,1.0,-25.5,0,1,0,0
56,57,0,71,70,0.06143598331647887,1,0.9859154929577465,-34.5,0,1,0,0
57,58,0,58,58,0.0013374543707305466,1,1.0,-29.0,0,1,0,0
58,59,0,56,56,1.0205239614304714e-13,1,1.0,-28.0,0,1,0,0
59,60,0,61,14,0.7657810411721311,0,0.22950819672131148,16.5,0,0,1,0
60,61,1,63,63,0.9999804563492063,1,1.0,-31.5,1,0,0,0
61,62,1,69,69,0.9221277166666667,1,1.0,-34.5,1,0,0,0
62,63,1,78,61,0.7465267027497084,1,0.782051282051282,-22.0,1,0,0,0
63,64,1,57,57,0.9971547301754385,1,1.0,-28.5,1,0,0,0
64,65,1,91,91,0.9959165358241757,1,1.0,-45.5,1,0,0,0
65,66,1,65,41,0.631484079938927,1,0.6307692307692307,-8.5,1,0,0,0
66,67,1,148,148,0.9932252410135136,1,1.0,-74.0,1,0,0,0
67,68,1,47,47,0.9411766661702128,1,1.0,-23.5,1,0,0,0
68,69,1,127,60,0.5565047225433071,0,0.47244094488188976,3.5,0,0,0,1
69,70,1,133,0,0.0063456287817669176,0,0.0,66.5,0,0,0,1
70,71,1,111,30,0.33782365774514334,0,0.2702702702702703,25.5,0,0,0,1
71,72,1,62,62,0.9994032583870968,1,1.0,-31.0,1,0,0,0
72,73,1,67,67,0.9963635489552239,1,1.0,-33.5,1,0,0,0
73,74,1,65,65,0.9997930001538462,1,1.0,-32.5,1,0,0,0
74,75,1,61,61,0.999999132295082,1,1.0,-30.5,1,0,0,0
75,76,1,74,74,0.980884312027027,1,1.0,-37.0,1,0,0,0
76,77,1,68,61,0.8718783194117646,1,0.8970588235294118,-27.0,1,0,0,0
77,78,1,79,79,0.9999444986075949,1,1.0,-39.5,1,0,0,0
78,79,1,34,34,0.9934551047058823,1,1.0,-17.0,1,0,0,0
79,80,1,59,0,1.3125410951980143e-07,0,0.0,29.5,0,0,0,1
80,81,1,115,115,0.9990289579130435,1,1.0,-57.5,1,0,0,0
81,82,1,94,94,0.9999533635106383,1,1.0,-47.0,1,0,0,0
82,83,1,87,80,0.8720386948275862,1,0.9195402298850575,-36.5,1,0,0,0
83,84,1,59,59,0.9814607601694916,1,1.0,-29.5,1,0,0,0
84,85,1,75,75,0.9998361039999999,1,1.0,-37.5,1,0,0,0
85,86,1,163,159,0.9733415371165643,1,0.9754601226993865,-77.5,1,0,0,0
86,87,1,106,34,0.5487593623584905,0,0.32075471698113206,19.0,0,0,0,1
87,88,1,76,76,0.9927502539473685,1,1.0,-38.0,1,0,0,0
88,89,1,73,73,0.999192491780822,1,1.0,-36.5,1,0,0,0
89,90,1,69,69,0.9989128256521739,1,1.0,-34.5,1,0,0,0
90,91,1,46,46,0.9995312613043478,1,1.0,-23.0,1,0,0,0
91,92,1,44,44,0.9984807895454545,1,1.0,-22.0,1,0,0,0
92,93,1,75,75,0.9897662064,1,1.0,-37.5,1,0,0,0
93,94,1,92,92,0.9979081233695651,1,1.0,-46.0,1,0,0,0
94,95,1,82,81,0.9867973886585366,1,0.9878048780487805,-40.0,1,0,0,0
95,96,1,104,2,0.08240581871701923,0,0.019230769230769232,50.0,0,0,0,1
96,97,1,52,52,0.9233014350000001,1,1.0,-26.0,1,0,0,0
97,98,1,37,11,0.488794478918919,0,0.2972972972972973,7.5,0,0,0,1
98,99,1,39,28,0.733115896923077,1,0.717948717948718,-8.5,1,0,0,0
99,100,1,37,37,0.9999511756756757,1,1.0,-18.5,1,0,0,0
100,101,1,102,101,0.9821490092156864,1,0.9901960784313726,-50.0,1,0,0,0
101,102,1,71,71,0.9777849002816902,1,1.0,-35.5,1,0,0,0
102,103,1,40,40,0.9868076909999999,1,1.0,-20.0,1,0,0,0
103,104,1,58,32,0.6388066418965518,1,0.5517241379310345,-3.0,1,0,0,0
104,105,1,65,65,0.9974872224615384,1,1.0,-32.5,1,0,0,0
105,106,1,50,46,0.8824396386,1,0.92,-21.0,1,0,0,0
106,107,1,61,61,0.9992752303278688,1,1.0,-30.5,1,0,0,0
107,108,1,72,72,0.9999836993055555,1,1.0,-36.0,1,0,0,0
108,109,1,49,49,0.9990211567346938,1,1.0,-24.5,1,0,0,0
109,110,1,63,63,0.9886425046031746,1,1.0,-31.5,1,0,0,0
110,111,1,53,53,0.9961583113207547,1,1.0,-26.5,1,0,0,0
111,112,1,39,39,0.9951097489743589,1,1.0,-19.5,1,0,0,0
112,113,1,92,92,0.999668489347826,1,1.0,-46.0,1,0,0,0
113,114,1,71,67,0.8783351229577465,1,0.9436619718309859,-31.5,1,0,0,0
114,115,1,48,48,0.9980896279166666,1,1.0,-24.0,1,0,0,0
115,116,1,74,74,0.9747938745945945,1,1.0,-37.0,1,0,0,0
116,117,1,109,109,0.9991422217431192,1,1.0,-54.5,1,0,0,0
117,118,1,88,66,0.7585130182954546,1,0.75,-22.0,1,0,0,0
118,119,1,128,128,0.9953678965625,1,1.0,-64.0,1,0,0,0
119,120,1,46,13,0.32635370370869565,0,0.2826086956521739,10.0,0,0,0,1
120,121,1,43,43,0.9999807225581396,1,1.0,-21.5,1,0,0,0
