,index_subject,type_subject,total_samples,total_ok,mean_value,num,level,need,true_positives,true_negatives,false_positives,false_negatives
0,1,0,58,58,0.00022346299287931035,1,1.0,-29.0,0,1,0,0
1,2,0,76,76,0.06289356673157895,1,1.0,-38.0,0,1,0,0
2,3,0,50,50,0.00491829584,1,1.0,-25.0,0,1,0,0
3,4,0,39,39,0.0741406434102564,1,1.0,-19.5,0,1,0,0
4,5,0,63,63,0.12895625676190475,1,1.0,-31.5,0,1,0,0
5,6,0,65,63,0.2670984448461538,1,0.9692307692307692,-30.5,0,1,0,0
6,7,0,74,74,0.14887569477027027,1,1.0,-37.0,0,1,0,0
7,8,0,51,51,0.002254623311078431,1,1.0,-25.5,0,1,0,0
8,9,0,53,53,0.036898759609433965,1,1.0,-26.5,0,1,0,0
9,10,0,84,84,0.025917851119404763,1,1.0,-42.0,0,1,0,0
10,11,0,46,46,0.039413855702173914,1,1.0,-23.0,0,1,0,0
11,12,0,61,61,0.0029193915344262293,1,1.0,-30.5,0,1,0,0
12,13,0,43,22,0.6108377472093024,1,0.5116279069767442,-0.5,0,1,0,0
13,14,0,49,0,0.8645763595918368,0,0.0,24.5,0,0,1,0
14,15,0,72,72,0.10035717930138889,1,1.0,-36.0,0,1,0,0
15,16,0,47,47,7.674014991489362e-05,1,1.0,-23.5,0,1,0,0
16,17,0,59,59,0.002924158437288136,1,1.0,-29.5,0,1,0,0
17,18,0,56,5,0.7976359908928572,0,0.08928571428571429,23.0,0,0,1,0
18,19,0,64,64,0.0376546825625,1,1.0,-32.0,0,1,0,0
19,20,0,59,59,0.3775938613559322,1,1.0,-29.5,0,1,0,0
20,21,0,45,45,0.041279284066666665,1,1.0,-22.5,0,1,0,0
21,22,0,62,62,0.09313509303225806,1,1.0,-31.0,0,1,0,0
22,23,0,98,94,0.08864440333734692,1,0.9591836734693877,-45.0,0,1,0,0
23,24,0,61,61,0.14731254596721313,1,1.0,-30.5,0,1,0,0
24,25,0,40,40,0.331986243,1,1.0,-20.0,0,1,0,0
25,26,0,37,37,0.2723167994054054,1,1.0,-18.5,0,1,0,0
26,27,0,54,54,0.23181261775925927,1,1.0,-27.0,0,1,0,0
27,28,0,60,2,0.9321165995,0,0.03333333333333333,28.0,0,0,1,0
28,29,0,85,83,0.027131253303807057,1,0.9764705882352941,-40.5,0,1,0,0
29,30,0,41,40,0.0632365476097561,1,0.975609756097561,-19.5,0,1,0,0
30,31,0,52,52,0.0001964125013846154,1,1.0,-26.0,0,1,0,0
31,32,0,62,0,0.8985654067741935,0,0.0,31.0,0,0,1,0
32,33,0,74,69,0.09371041647216216,1,0.9324324324324325,-32.0,0,1,0,0
33,34,0,53,53,0.06955392328301888,1,1.0,-26.5,0,1,0,0
34,35,0,71,68,0.2009761178028169,1,0.9577464788732394,-32.5,0,1,0,0
35,36,0,47,4,0.7477200470212766,0,0.0851063829787234,19.5,0,0,1,0
36,37,0,30,25,0.530870736,1,0.8333333333333334,-10.0,0,1,0,0
37,38,0,66,66,0.16638746368181817,1,1.0,-33.0,0,1,0,0
38,39,0,65,3,0.8868472352461539,0,0.046153846153846156,29.5,0,0,1,0
39,40,0,57,53,0.4535004256140351,1,0.9298245614035088,-24.5,0,1,0,0
40,41,0,44,44,0.05512240809090909,1,1.0,-22.0,0,1,0,0
41,42,0,98,98,1.005554783956653e-07,1,1.0,-49.0,0,1,0,0
42,43,0,49,0,0.9803781614285715,0,0.0,24.5,0,0,1,0
43,44,0,68,60,0.3727553174264706,1,0.8823529411764706,-26.0,0,1,0,0
44,45,0,65,0,0.9069869316923077,0,0.0,32.5,0,0,1,0
45,46,0,64,64,0.033428311584375,1,1.0,-32.0,0,1,0,0
46,47,0,53,53,0.007415584875471699,1,1.0,-26.5,0,1,0,0
47,48,0,84,1,0.9621291297619047,0,0.011904761904761904,41.0,0,0,1,0
48,49,0,60,49,0.5231650468333333,1,0.8166666666666667,-19.0,0,1,0,0
49,50,0,53,53,0.001255076132264151,1,1.0,-26.5,0,1,0,0
50,51,0,50,0,0.9370092654,0,0.0,25.0,0,0,1,0
51,52,0,73,73,2.0969536709178083e-05,1,1.0,-36.5,0,1,0,0
52,53,0,62,23,0.677024924032258,0,0.3709677419354839,8.0,0,0,1,0
53,54,0,38,4,0.7077048742105263,0,0.10526315789473684,15.0,0,0,1,0
54,55,0,95,95,0.06089828913578947,1,1.0,-47.5,0,1,0,0
55,56,0,51,48,0.4070787978431373,1,0.9411764705882353,-22.5,0,1,0,0
56,57,0,71,70,0.1823668533802817,1,0.9859154929577465,-34.5,0,1,0,0
57,58,0,58,58,0.006700016964310345,1,1.0,-29.0,0,1,0,0
58,59,0,56,56,5.1314436410714285e-05,1,1.0,-28.0,0,1,0,0
59,60,0,61,2,0.859318555409836,0,0.03278688524590164,28.5,0,0,1,0
60,61,1,63,63,0.9991717357142857,1,1.0,-31.5,1,0,0,0
61,62,1,69,69,0.9958182566666667,1,1.0,-34.5,1,0,0,0
62,63,1,78,63,0.7598091276923077,1,0.8076923076923077,-24.0,1,0,0,0
63,64,1,57,57,0.9897362212280701,1,1.0,-28.5,1,0,0,0
64,65,1,91,91,0.9121504718681319,1,1.0,-45.5,1,0,0,0
65,66,1,65,16,0.4990671216923077,0,0.24615384615384617,16.5,0,0,0,1
66,67,1,148,148,0.8965658937837838,1,1.0,-74.0,1,0,0,0
67,68,1,47,47,0.9610655419148937,1,1.0,-23.5,1,0,0,0
68,69,1,127,87,0.6869278006299212,1,0.6850393700787402,-23.5,1,0,0,0
69,70,1,133,23,0.5153557383458647,0,0.17293233082706766,43.5,0,0,0,1
70,71,1,111,109,0.9520631807387387,1,0.9819819819819819,-53.5,1,0,0,0
71,72,1,62,62,0.973253950483871,1,1.0,-31.0,1,0,0,0
72,73,1,67,66,0.8434980401492537,1,0.9850746268656716,-32.5,1,0,0,0
73,74,1,65,65,0.9918309836923076,1,1.0,-32.5,1,0,0,0
74,75,1,61,61,0.9642612957377049,1,1.0,-30.5,1,0,0,0
75,76,1,74,74,0.9611533706756756,1,1.0,-37.0,1,0,0,0
76,77,1,68,64,0.8404585352941176,1,0.9411764705882353,-30.0,1,0,0,0
77,78,1,79,79,0.9272367264556961,1,1.0,-39.5,1,0,0,0
78,79,1,34,34,0.9685582947058824,1,1.0,-17.0,1,0,0,0
79,80,1,59,0,0.07386404418644067,0,0.0,29.5,0,0,0,1
80,81,1,115,115,0.956667310173913,1,1.0,-57.5,1,0,0,0
81,82,1,94,94,0.9787880272340426,1,1.0,-47.0,1,0,0,0
82,83,1,87,87,0.9118679194252873,1,1.0,-43.5,1,0,0,0
83,84,1,59,59,0.9212290366101695,1,1.0,-29.5,1,0,0,0
84,85,1,75,75,0.9759422112,1,1.0,-37.5,1,0,0,0
85,86,1,163,163,0.9503524558895705,1,1.0,-81.5,1,0,0,0
86,87,1,106,57,0.640450758490566,1,0.5377358490566038,-4.0,1,0,0,0
87,88,1,76,0,0.29496029078947367,0,0.0,38.0,0,0,0,1
88,89,1,73,73,0.9528078073972603,1,1.0,-36.5,1,0,0,0
89,90,1,69,69,0.9819674910144929,1,1.0,-34.5,1,0,0,0
90,91,1,46,46,0.9652604739130435,1,1.0,-23.0,1,0,0,0
91,92,1,44,19,0.5179165157272728,0,0.4318181818181818,3.0,0,0,0,1
92,93,1,75,75,0.9834622065333334,1,1.0,-37.5,1,0,0,0
93,94,1,92,88,0.8824825660869565,1,0.9565217391304348,-42.0,1,0,0,0
94,95,1,82,82,0.9529279830487806,1,1.0,-41.0,1,0,0,0
95,96,1,104,0,0.32558385152884617,0,0.0,52.0,0,0,0,1
96,97,1,52,52,0.9498531425000001,1,1.0,-26.0,1,0,0,0
97,98,1,37,37,0.9698898202702703,1,1.0,-18.5,1,0,0,0
98,99,1,39,39,0.8900946030769231,1,1.0,-19.5,1,0,0,0
99,100,1,37,37,0.9557714572972973,1,1.0,-18.5,1,0,0,0
100,101,1,102,102,0.9643431116666668,1,1.0,-51.0,1,0,0,0
101,102,1,71,71,0.9029897014084506,1,1.0,-35.5,1,0,0,0
102,103,1,40,40,0.97673353625,1,1.0,-20.0,1,0,0,0
103,104,1,58,58,0.9051026072413794,1,1.0,-29.0,1,0,0,0
104,105,1,65,65,0.9988205543076923,1,1.0,-32.5,1,0,0,0
105,106,1,50,50,0.8786661508,1,1.0,-25.0,1,0,0,0
106,107,1,61,61,0.991885957704918,1,1.0,-30.5,1,0,0,0
107,108,1,72,72,0.9526867736111111,1,1.0,-36.0,1,0,0,0
108,109,1,49,49,0.9390395932653061,1,1.0,-24.5,1,0,0,0
109,110,1,63,63,0.9567932585714286,1,1.0,-31.5,1,0,0,0
110,111,1,53,35,0.6604664986792453,1,0.660377358490566,-8.5,1,0,0,0
111,112,1,39,39,0.8978825723076923,1,1.0,-19.5,1,0,0,0
112,113,1,92,79,0.7384601231521739,1,0.8586956521739131,-33.0,1,0,0,0
113,114,1,71,71,0.9208762016901408,1,1.0,-35.5,1,0,0,0
114,115,1,48,48,0.9442703447916667,1,1.0,-24.0,1,0,0,0
115,116,1,74,70,0.8259415137837838,1,0.9459459459459459,-33.0,1,0,0,0
116,117,1,109,109,0.9575785611009174,1,1.0,-54.5,1,0,0,0
117,118,1,88,87,0.9113617118181818,1,0.9886363636363636,-43.0,1,0,0,0
118,119,1,128,128,0.856525417421875,1,1.0,-64.0,1,0,0,0
119,120,1,46,46,0.9922571708695651,1,1.0,-23.0,1,0,0,0
120,121,1,43,42,0.8660908441860464,1,0.9767441860465116,-20.5,1,0,0,0
